<?xml version="1.0"?>
<robot name="Some_shape" xmlns:xacro="http://www.ros.org/wiki/xacro">
	<!--
This macro can be used to insert an object with a shape, position and color of choice. 
--> 		
	<xacro:macro name="red_shape_urdf" params="shape_name position color *shape">
		<!-- link list -->
		<link name="${shape_name}">
			<visual>
				<origin xyz="0 0 0" rpy="0 0 0" />
				<geometry>
					<xacro:insert_block name="shape" />
				</geometry>
				<material name="material_${shape_name}">
					<color rgba="${color}"/>
				</material>
			</visual>
			<collision>
				<geometry>
					<xacro:insert_block name="shape" />
				</geometry>
			</collision>
		</link>
		<joint name="${shape_name}_joint" type="fixed">
    		<parent link="world_interface" />
    		<child link="${shape_name}" />
    		<origin xyz="${position}" rpy="0 0 0" />
  		</joint>
	</xacro:macro>
</robot>

